[{"pair": "BTCTRY", "high": 40174.0, "last": 39471.0, "timestamp": 1538431777.0, "bid": 39401.0, "volume": 153.03, "low": 39122.0, "ask": 39469.0, "open": 40048.0, "average": 39561.55, "daily": 0.0, "dailyPercent": 0.0, "denominatorsymbol": "TRY", "numeratorsymbol": "BTC"}, {"pair": "ETHTRY", "high": 1419.0, "last": 1378.0, "timestamp": 1538431777.0, "bid": 1375.0, "volume": 3591.05, "low": 1355.0, "ask": 1384.0, "open": 1386.0, "average": 1380.96, "daily": 0.0, "dailyPercent": 0.0, "denominatorsymbol": "TRY", "numeratorsymbol": "ETH"}, {"pair": "XRPTRY", "high": 3.61, "last": 3.47, "timestamp": 1538431777.0, "bid": 3.47, "volume": 13005111.15, "low": 3.21, "ask": 3.48, "open": 3.49, "average": 3.44, "daily": 0.0, "dailyPercent": 0.0, "denominatorsymbol": "TRY", "numeratorsymbol": "XRP"}, {"pair": "USDTTRY", "high": 6.09, "last": 5.98, "timestamp": 1538431777.0, "bid": 5.97, "volume": 446159.08, "low": 5.92, "ask": 5.98, "open": 6.05, "average": 6.0, "daily": 0.0, "dailyPercent": 0.0, "denominatorsymbol": "TRY", "numeratorsymbol": "USDT"}, {"pair": "BTCUSDT", "high": 6675.0, "last": 6600.0, "timestamp": 1538431777.0, "bid": 6580.0, "volume": 8.0, "low": 6510.0, "ask": 6614.0, "open": 6512.0, "average": 6535.21, "daily": 0.0, "dailyPercent": 0.0, "denominatorsymbol": "USDT", "numeratorsymbol": "BTC"}]
{"e": "tickers", "ok": "ok", "data": [{"timestamp": "1538431778", "pair": "BTC:USD", "low": "6510", "high": "6645", "last": "6582.7", "volume": "428.14754688", "volume30d": "13143.53870578", "bid": 6575.3, "ask": 6590.1}, {"timestamp": "1538431778", "pair": "ETH:USD", "low": "225.12", "high": "234.3", "last": "230.8", "volume": "3292.82840900", "volume30d": "201021.02810600", "bid": 230.22, "ask": 230.79}, {"timestamp": "1538431778", "pair": "BCH:USD", "low": "520.1", "high": "540.97", "last": "530.5", "volume": "759.88813887", "volume30d": "30315.40583505", "bid": 529, "ask": 532.88}, {"timestamp": "1538431778", "pair": "BTG:USD", "low": "24.96", "high": "26.2", "last": "25.75", "volume": "1031.90171545", "volume30d": "41269.64399184", "bid": 25.32, "ask": 25.79}, {"timestamp": "1538431778", "pair": "DASH:USD", "low": "183.05", "high": "188.97", "last": "185.17", "volume": "35.50912122", "volume30d": "4570.16747430", "bid": 186.21, "ask": 187.72}, {"timestamp": "1538431778", "pair": "XRP:USD", "low": "0.538", "high": "0.6068", "last": "0.5834", "volume": "3327604.037306", "volume30d": "73431120.206171", "bid": 0.5798, "ask": 0.5831}, {"timestamp": "1538431778", "pair": "XLM:USD", "low": "0.252", "high": "0.2628", "last": "0.2581", "volume": "4845142.2378332", "volume30d": "145777655.8314585", "bid": 0.2577, "ask": 0.2579}, {"timestamp": "1538431778", "pair": "ZEC:USD", "low": "126.29", "high": "132", "last": "128.03", "volume": "173.54784988", "volume30d": "8127.67734727", "bid": 127.01, "ask": 128.52}]}
{"BTC": {"short_code": "BTC", "name": "Bitcoin", "currency": "TRY", "current": "39427.29", "change_amount": "19.71000000", "change_percentage": "0.0", "high": "39447", "low": "39224.02", "volume": "116.69401886", "ask": "39439.99", "bid": "39180.01", "timestamp": 1538431741}, "ETH": {"short_code": "ETH", "name": "Ethereum", "currency": "TRY", "current": "1375.01", "change_amount": "9.97000000", "change_percentage": "-0.7", "high": "1384.98", "low": "1367", "volume": "248.60634128", "ask": "1384.99", "bid": "1375.01", "timestamp": 1538431741}, "USDT": {"short_code": "USDT", "name": "USDTether", "currency": "TRY", "current": "5.97", "change_amount": "0.00000000", "change_percentage": "0.0", "high": "5.97", "low": "5.97", "volume": "17757.02162414", "ask": "6.02", "bid": "5.96", "timestamp": 1538431741}, "BCH": {"short_code": "BCH", "name": "Bitcoin Cash", "currency": "TRY", "current": "3152", "change_amount": "1.01000000", "change_percentage": "0.0", "high": "3153.01", "low": "3152", "volume": "81.98847803", "ask": "3195", "bid": "3152", "timestamp": 1538431741}, "LTC": {"short_code": "LTC", "name": "Litecoin", "currency": "TRY", "current": "364", "change_amount": "-1.00000000", "change_percentage": "0.2", "high": "364", "low": "360.1", "volume": "504.11002321", "ask": "367", "bid": "360.56", "timestamp": 1538431741}, "DOGE": {"short_code": "DOGE", "name": "Dogecoin", "currency": "TRY", "current": "0.035399", "change_amount": "-0.00004000", "change_percentage": "0.1", "high": "0.035489", "low": "0.035359", "volume": "16789056.66506252", "ask": "0.035489", "bid": "0.0354", "timestamp": 1538431741}, "DASH": {"short_code": "DASH", "name": "Dash", "currency": "TRY", "current": "1115", "change_amount": "0.00000000", "change_percentage": "0.0", "high": "1115", "low": "1115", "volume": "50.55449282", "ask": "1119", "bid": "1115", "timestamp": 1538431741}, "XRP": {"short_code": "XRP", "name": "XRP", "currency": "TRY", "current": "3.4998", "change_amount": "-0.00600000", "change_percentage": "0.1", "high": "3.546", "low": "3.4501", "volume": "2578293.47087811", "ask": "3.49", "bid": "3.4818", "timestamp": 1538431741}, "XLM": {"short_code": "XLM", "name": "Stellar", "currency": "TRY", "current": "1.5509", "change_amount": "0.00240000", "change_percentage": "-0.1", "high": "1.56", "low": "1.5401", "volume": "1149603.15660452", "ask": "1.5589", "bid": "1.55", "timestamp": 1538431741}, "XEM": {"short_code": "XEM", "name": "Nem", "currency": "TRY", "current": "0.6139", "change_amount": "-0.00790000", "change_percentage": "1.2", "high": "0.619", "low": "0.6045", "volume": "4588870.96391825", "ask": "0.6139", "bid": "0.6075", "timestamp": 1538431741}, "BTG": {"short_code": "BTG", "name": "Bitcoin Gold", "currency": "TRY", "current": "153", "change_amount": "-0.04000000", "change_percentage": "0.0", "high": "153.2", "low": "150.05", "volume": "824.10863198", "ask": "155.95", "bid": "150.05", "timestamp": 1538431741}, "ETC": {"short_code": "ETC", "name": "Ethereum Classic", "currency": "TRY", "current": "67.2", "change_amount": "0.11000000", "change_percentage": "-0.1", "high": "68", "low": "67.2", "volume": "1540.50382149", "ask": "68", "bid": "67.2", "timestamp": 1538431741}}
[{"symbol": "BTCUSDT", "bidPrice": "6593.07000000", "bidQty": "0.00002100", "askPrice": "6593.09000000", "askQty": "0.59285400"}, {"symbol": "ETHUSDT", "bidPrice": "230.82000000", "bidQty": "10.70268000", "askPrice": "230.89000000", "askQty": "12.06701000"}]
[{"pair": "BTCTRY", "high": 40174.0, "last": 39471.0, "timestamp": 1538431779.0, "bid": 39401.0, "volume": 153.03, "low": 39122.0, "ask": 39468.0, "open": 40048.0, "average": 39561.55, "daily": 0.0, "dailyPercent": 0.0, "denominatorsymbol": "TRY", "numeratorsymbol": "BTC"}, {"pair": "ETHTRY", "high": 1419.0, "last": 1378.0, "timestamp": 1538431779.0, "bid": 1375.0, "volume": 3591.05, "low": 1355.0, "ask": 1385.0, "open": 1386.0, "average": 1380.96, "daily": 0.0, "dailyPercent": 0.0, "denominatorsymbol": "TRY", "numeratorsymbol": "ETH"}, {"pair": "XRPTRY", "high": 3.61, "last": 3.47, "timestamp": 1538431779.0, "bid": 3.47, "volume": 13005111.15, "low": 3.21, "ask": 3.48, "open": 3.49, "average": 3.44, "daily": 0.0, "dailyPercent": 0.0, "denominatorsymbol": "TRY", "numeratorsymbol": "XRP"}, {"pair": "USDTTRY", "high": 6.09, "last": 5.98, "timestamp": 1538431779.0, "bid": 5.97, "volume": 446159.08, "low": 5.92, "ask": 5.98, "open": 6.05, "average": 6.0, "daily": 0.0, "dailyPercent": 0.0, "denominatorsymbol": "TRY", "numeratorsymbol": "USDT"}, {"pair": "BTCUSDT", "high": 6675.0, "last": 6600.0, "timestamp": 1538431779.0, "bid": 6580.0, "volume": 8.0, "low": 6510.0, "ask": 6614.0, "open": 6512.0, "average": 6535.21, "daily": 0.0, "dailyPercent": 0.0, "denominatorsymbol": "USDT", "numeratorsymbol": "BTC"}]
{"e": "tickers", "ok": "ok", "data": [{"timestamp": "1538431781", "pair": "BTC:USD", "low": "6510", "high": "6645", "last": "6582.7", "volume": "428.14754688", "volume30d": "13143.53870578", "bid": 6575.3, "ask": 6582.7}, {"timestamp": "1538431781", "pair": "ETH:USD", "low": "225.12", "high": "234.3", "last": "230.8", "volume": "3292.82840900", "volume30d": "201021.02810600", "bid": 230.22, "ask": 230.79}, {"timestamp": "1538431781", "pair": "BCH:USD", "low": "520.1", "high": "540.97", "last": "530.5", "volume": "759.88813887", "volume30d": "30315.40583505", "bid": 529, "ask": 532.87}, {"timestamp": "1538431781", "pair": "BTG:USD", "low": "24.96", "high": "26.2", "last": "25.75", "volume": "1031.90171545", "volume30d": "41269.64399184", "bid": 25.33, "ask": 25.79}, {"timestamp": "1538431781", "pair": "DASH:USD", "low": "183.05", "high": "188.97", "last": "185.17", "volume": "35.50912122", "volume30d": "4570.16747430", "bid": 186.21, "ask": 187.72}, {"timestamp": "1538431781", "pair": "XRP:USD", "low": "0.538", "high": "0.6068", "last": "0.5834", "volume": "3327604.037306", "volume30d": "73431120.206171", "bid": 0.5782, "ask": 0.5829}, {"timestamp": "1538431781", "pair": "XLM:USD", "low": "0.252", "high": "0.2628", "last": "0.2581", "volume": "4845142.2378332", "volume30d": "145777655.8314585", "bid": 0.2577, "ask": 0.2579}, {"timestamp": "1538431781", "pair": "ZEC:USD", "low": "126.29", "high": "132", "last": "128.03", "volume": "173.54784988", "volume30d": "8127.67734727", "bid": 127.01, "ask": 128.52}]}
{"BTC": {"short_code": "BTC", "name": "Bitcoin", "currency": "TRY", "current": "39427.29", "change_amount": "19.71000000", "change_percentage": "0.0", "high": "39447", "low": "39224.02", "volume": "116.69401886", "ask": "39439.99", "bid": "39180.01", "timestamp": 1538431741}, "ETH": {"short_code": "ETH", "name": "Ethereum", "currency": "TRY", "current": "1375.01", "change_amount": "9.97000000", "change_percentage": "-0.7", "high": "1384.98", "low": "1367", "volume": "248.60634128", "ask": "1384.99", "bid": "1375.01", "timestamp": 1538431741}, "USDT": {"short_code": "USDT", "name": "USDTether", "currency": "TRY", "current": "5.97", "change_amount": "0.00000000", "change_percentage": "0.0", "high": "5.97", "low": "5.97", "volume": "17757.02162414", "ask": "6.02", "bid": "5.96", "timestamp": 1538431741}, "BCH": {"short_code": "BCH", "name": "Bitcoin Cash", "currency": "TRY", "current": "3152", "change_amount": "1.01000000", "change_percentage": "0.0", "high": "3153.01", "low": "3152", "volume": "81.98847803", "ask": "3195", "bid": "3152", "timestamp": 1538431741}, "LTC": {"short_code": "LTC", "name": "Litecoin", "currency": "TRY", "current": "364", "change_amount": "-1.00000000", "change_percentage": "0.2", "high": "364", "low": "360.1", "volume": "504.11002321", "ask": "367", "bid": "360.56", "timestamp": 1538431741}, "DOGE": {"short_code": "DOGE", "name": "Dogecoin", "currency": "TRY", "current": "0.035399", "change_amount": "-0.00004000", "change_percentage": "0.1", "high": "0.035489", "low": "0.035359", "volume": "16789056.66506252", "ask": "0.035489", "bid": "0.0354", "timestamp": 1538431741}, "DASH": {"short_code": "DASH", "name": "Dash", "currency": "TRY", "current": "1115", "change_amount": "0.00000000", "change_percentage": "0.0", "high": "1115", "low": "1115", "volume": "50.55449282", "ask": "1119", "bid": "1115", "timestamp": 1538431741}, "XRP": {"short_code": "XRP", "name": "XRP", "currency": "TRY", "current": "3.4998", "change_amount": "-0.00600000", "change_percentage": "0.1", "high": "3.546", "low": "3.4501", "volume": "2578293.47087811", "ask": "3.49", "bid": "3.4818", "timestamp": 1538431741}, "XLM": {"short_code": "XLM", "name": "Stellar", "currency": "TRY", "current": "1.5509", "change_amount": "0.00240000", "change_percentage": "-0.1", "high": "1.56", "low": "1.5401", "volume": "1149603.15660452", "ask": "1.5589", "bid": "1.55", "timestamp": 1538431741}, "XEM": {"short_code": "XEM", "name": "Nem", "currency": "TRY", "current": "0.6139", "change_amount": "-0.00790000", "change_percentage": "1.2", "high": "0.619", "low": "0.6045", "volume": "4588870.96391825", "ask": "0.6139", "bid": "0.6075", "timestamp": 1538431741}, "BTG": {"short_code": "BTG", "name": "Bitcoin Gold", "currency": "TRY", "current": "153", "change_amount": "-0.04000000", "change_percentage": "0.0", "high": "153.2", "low": "150.05", "volume": "824.10863198", "ask": "155.95", "bid": "150.05", "timestamp": 1538431741}, "ETC": {"short_code": "ETC", "name": "Ethereum Classic", "currency": "TRY", "current": "67.2", "change_amount": "0.11000000", "change_percentage": "-0.1", "high": "68", "low": "67.2", "volume": "1540.50382149", "ask": "68", "bid": "67.2", "timestamp": 1538431741}}
[{"symbol": "BTCUSDT", "bidPrice": "6591.02000000", "bidQty": "0.00000600", "askPrice": "6593.07000000", "askQty": "0.08716100"}, {"symbol": "ETHUSDT", "bidPrice": "230.82000000", "bidQty": "10.70268000", "askPrice": "230.89000000", "askQty": "15.17804000"}]
[{"pair": "BTCTRY", "high": 40174.0, "last": 39471.0, "timestamp": 1538431783.0, "bid": 39401.0, "volume": 153.03, "low": 39122.0, "ask": 39469.0, "open": 40048.0, "average": 39561.55, "daily": 0.0, "dailyPercent": 0.0, "denominatorsymbol": "TRY", "numeratorsymbol": "BTC"}, {"pair": "ETHTRY", "high": 1419.0, "last": 1378.0, "timestamp": 1538431783.0, "bid": 1375.0, "volume": 3591.05, "low": 1355.0, "ask": 1385.0, "open": 1386.0, "average": 1380.96, "daily": 0.0, "dailyPercent": 0.0, "denominatorsymbol": "TRY", "numeratorsymbol": "ETH"}, {"pair": "XRPTRY", "high": 3.61, "last": 3.47, "timestamp": 1538431783.0, "bid": 3.47, "volume": 13005522.47, "low": 3.21, "ask": 3.48, "open": 3.49, "average": 3.44, "daily": 0.0, "dailyPercent": 0.0, "denominatorsymbol": "TRY", "numeratorsymbol": "XRP"}, {"pair": "USDTTRY", "high": 6.09, "last": 5.98, "timestamp": 1538431783.0, "bid": 5.97, "volume": 446159.08, "low": 5.92, "ask": 5.98, "open": 6.05, "average": 6.0, "daily": 0.0, "dailyPercent": 0.0, "denominatorsymbol": "TRY", "numeratorsymbol": "USDT"}, {"pair": "BTCUSDT", "high": 6675.0, "last": 6600.0, "timestamp": 1538431783.0, "bid": 6580.0, "volume": 8.0, "low": 6510.0, "ask": 6614.0, "open": 6512.0, "average": 6535.21, "daily": 0.0, "dailyPercent": 0.0, "denominatorsymbol": "USDT", "numeratorsymbol": "BTC"}]
{"e": "tickers", "ok": "ok", "data": [{"timestamp": "1538431784", "pair": "BTC:USD", "low": "6510", "high": "6645", "last": "6582.7", "volume": "428.15344688", "volume30d": "13143.53870578", "bid": 6575.3, "ask": 6590.1}, {"timestamp": "1538431784", "pair": "ETH:USD", "low": "225.12", "high": "234.3", "last": "230.8", "volume": "3292.82840900", "volume30d": "201021.02810600", "bid": 230.22, "ask": 230.79}, {"timestamp": "1538431784", "pair": "BCH:USD", "low": "520.1", "high": "540.97", "last": "530.5", "volume": "759.88813887", "volume30d": "30315.40583505", "bid": 529.01, "ask": 532.9}, {"timestamp": "1538431784", "pair": "BTG:USD", "low": "24.96", "high": "26.2", "last": "25.75", "volume": "1031.90171545", "volume30d": "41269.64399184", "bid": 25.35, "ask": 25.79}, {"timestamp": "1538431784", "pair": "DASH:USD", "low": "183.05", "high": "188.97", "last": "185.17", "volume": "35.50912122", "volume30d": "4570.16747430", "bid": 186.21, "ask": 187.72}, {"timestamp": "1538431784", "pair": "XRP:USD", "low": "0.538", "high": "0.6068", "last": "0.5834", "volume": "3327604.037306", "volume30d": "73431120.206171", "bid": 0.5782, "ask": 0.5829}, {"timestamp": "1538431784", "pair": "XLM:USD", "low": "0.252", "high": "0.2628", "last": "0.2579", "volume": "4845276.2378332", "volume30d": "145777655.8314585", "bid": 0.2577, "ask": 0.2579}, {"timestamp": "1538431784", "pair": "ZEC:USD", "low": "126.29", "high": "132", "last": "128.03", "volume": "173.54784988", "volume30d": "8127.67734727", "bid": 127.01, "ask": 128.52}]}
{"BTC": {"short_code": "BTC", "name": "Bitcoin", "currency": "TRY", "current": "39427.29", "change_amount": "19.71000000", "change_percentage": "0.0", "high": "39447", "low": "39224.02", "volume": "116.69401886", "ask": "39439.99", "bid": "39180.01", "timestamp": 1538431741}, "ETH": {"short_code": "ETH", "name": "Ethereum", "currency": "TRY", "current": "1375.01", "change_amount": "9.97000000", "change_percentage": "-0.7", "high": "1384.98", "low": "1367", "volume": "248.60634128", "ask": "1384.99", "bid": "1375.01", "timestamp": 1538431741}, "USDT": {"short_code": "USDT", "name": "USDTether", "currency": "TRY", "current": "5.97", "change_amount": "0.00000000", "change_percentage": "0.0", "high": "5.97", "low": "5.97", "volume": "17757.02162414", "ask": "6.02", "bid": "5.96", "timestamp": 1538431741}, "BCH": {"short_code": "BCH", "name": "Bitcoin Cash", "currency": "TRY", "current": "3152", "change_amount": "1.01000000", "change_percentage": "0.0", "high": "3153.01", "low": "3152", "volume": "81.98847803", "ask": "3195", "bid": "3152", "timestamp": 1538431741}, "LTC": {"short_code": "LTC", "name": "Litecoin", "currency": "TRY", "current": "364", "change_amount": "-1.00000000", "change_percentage": "0.2", "high": "364", "low": "360.1", "volume": "504.11002321", "ask": "367", "bid": "360.56", "timestamp": 1538431741}, "DOGE": {"short_code": "DOGE", "name": "Dogecoin", "currency": "TRY", "current": "0.035399", "change_amount": "-0.00004000", "change_percentage": "0.1", "high": "0.035489", "low": "0.035359", "volume": "16789056.66506252", "ask": "0.035489", "bid": "0.0354", "timestamp": 1538431741}, "DASH": {"short_code": "DASH", "name": "Dash", "currency": "TRY", "current": "1115", "change_amount": "0.00000000", "change_percentage": "0.0", "high": "1115", "low": "1115", "volume": "50.55449282", "ask": "1119", "bid": "1115", "timestamp": 1538431741}, "XRP": {"short_code": "XRP", "name": "XRP", "currency": "TRY", "current": "3.4998", "change_amount": "-0.00600000", "change_percentage": "0.1", "high": "3.546", "low": "3.4501", "volume": "2578293.47087811", "ask": "3.49", "bid": "3.4818", "timestamp": 1538431741}, "XLM": {"short_code": "XLM", "name": "Stellar", "currency": "TRY", "current": "1.5509", "change_amount": "0.00240000", "change_percentage": "-0.1", "high": "1.56", "low": "1.5401", "volume": "1149603.15660452", "ask": "1.5589", "bid": "1.55", "timestamp": 1538431741}, "XEM": {"short_code": "XEM", "name": "Nem", "currency": "TRY", "current": "0.6139", "change_amount": "-0.00790000", "change_percentage": "1.2", "high": "0.619", "low": "0.6045", "volume": "4588870.96391825", "ask": "0.6139", "bid": "0.6075", "timestamp": 1538431741}, "BTG": {"short_code": "BTG", "name": "Bitcoin Gold", "currency": "TRY", "current": "153", "change_amount": "-0.04000000", "change_percentage": "0.0", "high": "153.2", "low": "150.05", "volume": "824.10863198", "ask": "155.95", "bid": "150.05", "timestamp": 1538431741}, "ETC": {"short_code": "ETC", "name": "Ethereum Classic", "currency": "TRY", "current": "67.2", "change_amount": "0.11000000", "change_percentage": "-0.1", "high": "68", "low": "67.2", "volume": "1540.50382149", "ask": "68", "bid": "67.2", "timestamp": 1538431741}}
[{"symbol": "BTCUSDT", "bidPrice": "6593.07000000", "bidQty": "0.00002000", "askPrice": "6593.08000000", "askQty": "6.90917100"}, {"symbol": "ETHUSDT", "bidPrice": "230.85000000", "bidQty": "3.10300000", "askPrice": "230.90000000", "askQty": "0.92539000"}]
[{"pair": "BTCTRY", "high": 40174.0, "last": 39471.0, "timestamp": 1538431785.0, "bid": 39401.0, "volume": 153.03, "low": 39122.0, "ask": 39468.0, "open": 40048.0, "average": 39561.55, "daily": 0.0, "dailyPercent": 0.0, "denominatorsymbol": "TRY", "numeratorsymbol": "BTC"}, {"pair": "ETHTRY", "high": 1419.0, "last": 1378.0, "timestamp": 1538431785.0, "bid": 1375.0, "volume": 3591.05, "low": 1355.0, "ask": 1384.0, "open": 1386.0, "average": 1380.96, "daily": 0.0, "dailyPercent": 0.0, "denominatorsymbol": "TRY", "numeratorsymbol": "ETH"}, {"pair": "XRPTRY", "high": 3.61, "last": 3.46, "timestamp": 1538431785.0, "bid": 3.46, "volume": 13009859.3, "low": 3.21, "ask": 3.48, "open": 3.49, "average": 3.44, "daily": 0.0, "dailyPercent": 0.0, "denominatorsymbol": "TRY", "numeratorsymbol": "XRP"}, {"pair": "USDTTRY", "high": 6.09, "last": 5.98, "timestamp": 1538431785.0, "bid": 5.97, "volume": 446159.08, "low": 5.92, "ask": 5.98, "open": 6.05, "average": 6.0, "daily": 0.0, "dailyPercent": 0.0, "denominatorsymbol": "TRY", "numeratorsymbol": "USDT"}, {"pair": "BTCUSDT", "high": 6675.0, "last": 6600.0, "timestamp": 1538431785.0, "bid": 6580.0, "volume": 8.0, "low": 6510.0, "ask": 6614.0, "open": 6512.0, "average": 6535.21, "daily": 0.0, "dailyPercent": 0.0, "denominatorsymbol": "USDT", "numeratorsymbol": "BTC"}]
{"e": "tickers", "ok": "ok", "data": [{"timestamp": "1538431787", "pair": "BTC:USD", "low": "6510", "high": "6645", "last": "6582.7", "volume": "428.15344688", "volume30d": "13143.53870578", "bid": 6575.3, "ask": 6590.1}, {"timestamp": "1538431787", "pair": "ETH:USD", "low": "225.12", "high": "234.3", "last": "230.8", "volume": "3292.82840900", "volume30d": "201021.02810600", "bid": 230.22, "ask": 230.79}, {"timestamp": "1538431787", "pair": "BCH:USD", "low": "520.1", "high": "540.97", "last": "530.5", "volume": "759.88813887", "volume30d": "30315.40583505", "bid": 529.01, "ask": 532.86}, {"timestamp": "1538431787", "pair": "BTG:USD", "low": "24.96", "high": "26.2", "last": "25.75", "volume": "1031.90171545", "volume30d": "41269.64399184", "bid": 25.35, "ask": 25.79}, {"timestamp": "1538431787", "pair": "DASH:USD", "low": "183.05", "high": "188.97", "last": "185.17", "volume": "35.50912122", "volume30d": "4570.16747430", "bid": 186.21, "ask": 187.72}, {"timestamp": "1538431787", "pair": "XRP:USD", "low": "0.538", "high": "0.6068", "last": "0.5834", "volume": "3327604.037306", "volume30d": "73431120.206171", "bid": 0.5782, "ask": 0.5829}, {"timestamp": "1538431787", "pair": "XLM:USD", "low": "0.252", "high": "0.2628", "last": "0.2579", "volume": "4845276.2378332", "volume30d": "145777655.8314585", "bid": 0.2577, "ask": 0.2579}, {"timestamp": "1538431787", "pair": "ZEC:USD", "low": "126.29", "high": "132", "last": "128.03", "volume": "173.54784988", "volume30d": "8127.67734727", "bid": 127.01, "ask": 128.52}]}
{"BTC": {"short_code": "BTC", "name": "Bitcoin", "currency": "TRY", "current": "39427.29", "change_amount": "19.71000000", "change_percentage": "0.0", "high": "39447", "low": "39224.02", "volume": "116.69401886", "ask": "39439.99", "bid": "39180.01", "timestamp": 1538431741}, "ETH": {"short_code": "ETH", "name": "Ethereum", "currency": "TRY", "current": "1375.01", "change_amount": "9.97000000", "change_percentage": "-0.7", "high": "1384.98", "low": "1367", "volume": "248.60634128", "ask": "1384.99", "bid": "1375.01", "timestamp": 1538431741}, "USDT": {"short_code": "USDT", "name": "USDTether", "currency": "TRY", "current": "5.97", "change_amount": "0.00000000", "change_percentage": "0.0", "high": "5.97", "low": "5.97", "volume": "17757.02162414", "ask": "6.02", "bid": "5.96", "timestamp": 1538431741}, "BCH": {"short_code": "BCH", "name": "Bitcoin Cash", "currency": "TRY", "current": "3152", "change_amount": "1.01000000", "change_percentage": "0.0", "high": "3153.01", "low": "3152", "volume": "81.98847803", "ask": "3195", "bid": "3152", "timestamp": 1538431741}, "LTC": {"short_code": "LTC", "name": "Litecoin", "currency": "TRY", "current": "364", "change_amount": "-1.00000000", "change_percentage": "0.2", "high": "364", "low": "360.1", "volume": "504.11002321", "ask": "367", "bid": "360.56", "timestamp": 1538431741}, "DOGE": {"short_code": "DOGE", "name": "Dogecoin", "currency": "TRY", "current": "0.035399", "change_amount": "-0.00004000", "change_percentage": "0.1", "high": "0.035489", "low": "0.035359", "volume": "16789056.66506252", "ask": "0.035489", "bid": "0.0354", "timestamp": 1538431741}, "DASH": {"short_code": "DASH", "name": "Dash", "currency": "TRY", "current": "1115", "change_amount": "0.00000000", "change_percentage": "0.0", "high": "1115", "low": "1115", "volume": "50.55449282", "ask": "1119", "bid": "1115", "timestamp": 1538431741}, "XRP": {"short_code": "XRP", "name": "XRP", "currency": "TRY", "current": "3.4998", "change_amount": "-0.00600000", "change_percentage": "0.1", "high": "3.546", "low": "3.4501", "volume": "2578293.47087811", "ask": "3.49", "bid": "3.4818", "timestamp": 1538431741}, "XLM": {"short_code": "XLM", "name": "Stellar", "currency": "TRY", "current": "1.5509", "change_amount": "0.00240000", "change_percentage": "-0.1", "high": "1.56", "low": "1.5401", "volume": "1149603.15660452", "ask": "1.5589", "bid": "1.55", "timestamp": 1538431741}, "XEM": {"short_code": "XEM", "name": "Nem", "currency": "TRY", "current": "0.6139", "change_amount": "-0.00790000", "change_percentage": "1.2", "high": "0.619", "low": "0.6045", "volume": "4588870.96391825", "ask": "0.6139", "bid": "0.6075", "timestamp": 1538431741}, "BTG": {"short_code": "BTG", "name": "Bitcoin Gold", "currency": "TRY", "current": "153", "change_amount": "-0.04000000", "change_percentage": "0.0", "high": "153.2", "low": "150.05", "volume": "824.10863198", "ask": "155.95", "bid": "150.05", "timestamp": 1538431741}, "ETC": {"short_code": "ETC", "name": "Ethereum Classic", "currency": "TRY", "current": "67.2", "change_amount": "0.11000000", "change_percentage": "-0.1", "high": "68", "low": "67.2", "volume": "1540.50382149", "ask": "68", "bid": "67.2", "timestamp": 1538431741}}
[{"symbol": "BTCUSDT", "bidPrice": "6591.03000000", "bidQty": "0.05960900", "askPrice": "6593.08000000", "askQty": "6.84526200"}, {"symbol": "ETHUSDT", "bidPrice": "230.83000000", "bidQty": "4.46028000", "askPrice": "230.93000000", "askQty": "0.86579000"}]
[{"pair": "BTCTRY", "high": 40174.0, "last": 39471.0, "timestamp": 1538431788.0, "bid": 39401.0, "volume": 153.03, "low": 39122.0, "ask": 39468.0, "open": 40048.0, "average": 39561.55, "daily": 0.0, "dailyPercent": 0.0, "denominatorsymbol": "TRY", "numeratorsymbol": "BTC"}, {"pair": "ETHTRY", "high": 1419.0, "last": 1378.0, "timestamp": 1538431788.0, "bid": 1375.0, "volume": 3591.05, "low": 1355.0, "ask": 1384.0, "open": 1386.0, "average": 1380.96, "daily": 0.0, "dailyPercent": 0.0, "denominatorsymbol": "TRY", "numeratorsymbol": "ETH"}, {"pair": "XRPTRY", "high": 3.61, "last": 3.46, "timestamp": 1538431788.0, "bid": 3.47, "volume": 13009859.3, "low": 3.21, "ask": 3.48, "open": 3.49, "average": 3.44, "daily": 0.0, "dailyPercent": 0.0, "denominatorsymbol": "TRY", "numeratorsymbol": "XRP"}, {"pair": "USDTTRY", "high": 6.09, "last": 5.98, "timestamp": 1538431788.0, "bid": 5.97, "volume": 446159.08, "low": 5.92, "ask": 5.98, "open": 6.05, "average": 6.0, "daily": 0.0, "dailyPercent": 0.0, "denominatorsymbol": "TRY", "numeratorsymbol": "USDT"}, {"pair": "BTCUSDT", "high": 6675.0, "last": 6600.0, "timestamp": 1538431788.0, "bid": 6580.0, "volume": 8.0, "low": 6510.0, "ask": 6614.0, "open": 6512.0, "average": 6535.21, "daily": 0.0, "dailyPercent": 0.0, "denominatorsymbol": "USDT", "numeratorsymbol": "BTC"}]
{"e": "tickers", "ok": "ok", "data": [{"timestamp": "1538431790", "pair": "BTC:USD", "low": "6510", "high": "6645", "last": "6582.7", "volume": "428.16354688", "volume30d": "13143.53870578", "bid": 6575.3, "ask": 6590.1}, {"timestamp": "1538431790", "pair": "ETH:USD", "low": "225.12", "high": "234.3", "last": "230.8", "volume": "3292.82840900", "volume30d": "201021.02810600", "bid": 230.22, "ask": 230.7}, {"timestamp": "1538431790", "pair": "BCH:USD", "low": "520.1", "high": "540.97", "last": "530.5", "volume": "759.88813887", "volume30d": "30315.40583505", "bid": 529.01, "ask": 532.86}, {"timestamp": "1538431790", "pair": "BTG:USD", "low": "24.96", "high": "26.2", "last": "25.75", "volume": "1031.90171545", "volume30d": "41269.64399184", "bid": 25.36, "ask": 25.79}, {"timestamp": "1538431790", "pair": "DASH:USD", "low": "183.05", "high": "188.97", "last": "185.17", "volume": "35.50912122", "volume30d": "4570.16747430", "bid": 186.21, "ask": 187.72}, {"timestamp": "1538431790", "pair": "XRP:USD", "low": "0.538", "high": "0.6068", "last": "0.5834", "volume": "3327604.037306", "volume30d": "73431120.206171", "bid": 0.5782, "ask": 0.5829}, {"timestamp": "1538431790", "pair": "XLM:USD", "low": "0.252", "high": "0.2628", "last": "0.2579", "volume": "4845276.2378332", "volume30d": "145777655.8314585", "bid": 0.2577, "ask": 0.2579}, {"timestamp": "1538431790", "pair": "ZEC:USD", "low": "126.29", "high": "132", "last": "128.03", "volume": "173.54784988", "volume30d": "8127.67734727", "bid": 127.01, "ask": 128.52}]}
{"BTC": {"short_code": "BTC", "name": "Bitcoin", "currency": "TRY", "current": "39427.29", "change_amount": "19.71000000", "change_percentage": "0.0", "high": "39447", "low": "39224.02", "volume": "116.69401886", "ask": "39439.99", "bid": "39180.01", "timestamp": 1538431741}, "ETH": {"short_code": "ETH", "name": "Ethereum", "currency": "TRY", "current": "1375.01", "change_amount": "9.97000000", "change_percentage": "-0.7", "high": "1384.98", "low": "1367", "volume": "248.60634128", "ask": "1384.99", "bid": "1375.01", "timestamp": 1538431741}, "USDT": {"short_code": "USDT", "name": "USDTether", "currency": "TRY", "current": "5.97", "change_amount": "0.00000000", "change_percentage": "0.0", "high": "5.97", "low": "5.97", "volume": "17757.02162414", "ask": "6.02", "bid": "5.96", "timestamp": 1538431741}, "BCH": {"short_code": "BCH", "name": "Bitcoin Cash", "currency": "TRY", "current": "3152", "change_amount": "1.01000000", "change_percentage": "0.0", "high": "3153.01", "low": "3152", "volume": "81.98847803", "ask": "3195", "bid": "3152", "timestamp": 1538431741}, "LTC": {"short_code": "LTC", "name": "Litecoin", "currency": "TRY", "current": "364", "change_amount": "-1.00000000", "change_percentage": "0.2", "high": "364", "low": "360.1", "volume": "504.11002321", "ask": "367", "bid": "360.56", "timestamp": 1538431741}, "DOGE": {"short_code": "DOGE", "name": "Dogecoin", "currency": "TRY", "current": "0.035399", "change_amount": "-0.00004000", "change_percentage": "0.1", "high": "0.035489", "low": "0.035359", "volume": "16789056.66506252", "ask": "0.035489", "bid": "0.0354", "timestamp": 1538431741}, "DASH": {"short_code": "DASH", "name": "Dash", "currency": "TRY", "current": "1115", "change_amount": "0.00000000", "change_percentage": "0.0", "high": "1115", "low": "1115", "volume": "50.55449282", "ask": "1119", "bid": "1115", "timestamp": 1538431741}, "XRP": {"short_code": "XRP", "name": "XRP", "currency": "TRY", "current": "3.4998", "change_amount": "-0.00600000", "change_percentage": "0.1", "high": "3.546", "low": "3.4501", "volume": "2578293.47087811", "ask": "3.49", "bid": "3.4818", "timestamp": 1538431741}, "XLM": {"short_code": "XLM", "name": "Stellar", "currency": "TRY", "current": "1.5509", "change_amount": "0.00240000", "change_percentage": "-0.1", "high": "1.56", "low": "1.5401", "volume": "1149603.15660452", "ask": "1.5589", "bid": "1.55", "timestamp": 1538431741}, "XEM": {"short_code": "XEM", "name": "Nem", "currency": "TRY", "current": "0.6139", "change_amount": "-0.00790000", "change_percentage": "1.2", "high": "0.619", "low": "0.6045", "volume": "4588870.96391825", "ask": "0.6139", "bid": "0.6075", "timestamp": 1538431741}, "BTG": {"short_code": "BTG", "name": "Bitcoin Gold", "currency": "TRY", "current": "153", "change_amount": "-0.04000000", "change_percentage": "0.0", "high": "153.2", "low": "150.05", "volume": "824.10863198", "ask": "155.95", "bid": "150.05", "timestamp": 1538431741}, "ETC": {"short_code": "ETC", "name": "Ethereum Classic", "currency": "TRY", "current": "67.2", "change_amount": "0.11000000", "change_percentage": "-0.1", "high": "68", "low": "67.2", "volume": "1540.50382149", "ask": "68", "bid": "67.2", "timestamp": 1538431741}}
[{"symbol": "BTCUSDT", "bidPrice": "6591.03000000", "bidQty": "0.05960900", "askPrice": "6593.08000000", "askQty": "6.84526200"}, {"symbol": "ETHUSDT", "bidPrice": "230.83000000", "bidQty": "1.51737000", "askPrice": "230.93000000", "askQty": "0.86579000"}]
[{"pair": "BTCTRY", "high": 40174.0, "last": 39471.0, "timestamp": 1538431790.0, "bid": 39401.0, "volume": 153.03, "low": 39122.0, "ask": 39467.0, "open": 40048.0, "average": 39561.55, "daily": 0.0, "dailyPercent": 0.0, "denominatorsymbol": "TRY", "numeratorsymbol": "BTC"}, {"pair": "ETHTRY", "high": 1419.0, "last": 1378.0, "timestamp": 1538431790.0, "bid": 1375.0, "volume": 3591.05, "low": 1355.0, "ask": 1384.0, "open": 1386.0, "average": 1380.96, "daily": 0.0, "dailyPercent": 0.0, "denominatorsymbol": "TRY", "numeratorsymbol": "ETH"}, {"pair": "XRPTRY", "high": 3.61, "last": 3.46, "timestamp": 1538431790.0, "bid": 3.47, "volume": 13009859.3, "low": 3.21, "ask": 3.48, "open": 3.49, "average": 3.44, "daily": 0.0, "dailyPercent": 0.0, "denominatorsymbol": "TRY", "numeratorsymbol": "XRP"}, {"pair": "USDTTRY", "high": 6.09, "last": 5.98, "timestamp": 1538431790.0, "bid": 5.97, "volume": 446159.08, "low": 5.92, "ask": 5.98, "open": 6.05, "average": 6.0, "daily": 0.0, "dailyPercent": 0.0, "denominatorsymbol": "TRY", "numeratorsymbol": "USDT"}, {"pair": "BTCUSDT", "high": 6675.0, "last": 6600.0, "timestamp": 1538431790.0, "bid": 6580.0, "volume": 8.0, "low": 6510.0, "ask": 6614.0, "open": 6512.0, "average": 6535.21, "daily": 0.0, "dailyPercent": 0.0, "denominatorsymbol": "USDT", "numeratorsymbol": "BTC"}]
{"e": "tickers", "ok": "ok", "data": [{"timestamp": "1538431793", "pair": "BTC:USD", "low": "6510", "high": "6645", "last": "6582.7", "volume": "428.16354688", "volume30d": "13143.53870578", "bid": 6575.3, "ask": 6590.1}, {"timestamp": "1538431793", "pair": "ETH:USD", "low": "225.12", "high": "234.3", "last": "230.8", "volume": "3292.82840900", "volume30d": "201021.02810600", "bid": 230.22, "ask": 230.69}, {"timestamp": "1538431793", "pair": "BCH:USD", "low": "520.1", "high": "540.97", "last": "530.5", "volume": "759.88813887", "volume30d": "30315.40583505", "bid": 529.01, "ask": 532.85}, {"timestamp": "1538431793", "pair": "BTG:USD", "low": "24.96", "high": "26.2", "last": "25.75", "volume": "1031.90171545", "volume30d": "41269.64399184", "bid": 25.36, "ask": 25.79}, {"timestamp": "1538431793", "pair": "DASH:USD", "low": "183.05", "high": "188.97", "last": "185.17", "volume": "35.50912122", "volume30d": "4570.16747430", "bid": 186.21, "ask": 187.72}, {"timestamp": "1538431793", "pair": "XRP:USD", "low": "0.538", "high": "0.6068", "last": "0.5834", "volume": "3327604.037306", "volume30d": "73431120.206171", "bid": 0.5784, "ask": 0.5827}, {"timestamp": "1538431793", "pair": "XLM:USD", "low": "0.252", "high": "0.2628", "last": "0.2579", "volume": "4845276.2378332", "volume30d": "145777655.8314585", "bid": 0.2577, "ask": 0.2579}, {"timestamp": "1538431793", "pair": "ZEC:USD", "low": "126.29", "high": "132", "last": "128.03", "volume": "173.54784988", "volume30d": "8127.67734727", "bid": 127.01, "ask": 128.52}]}
{"BTC": {"short_code": "BTC", "name": "Bitcoin", "currency": "TRY", "current": "39427.29", "change_amount": "19.71000000", "change_percentage": "0.0", "high": "39447", "low": "39224.02", "volume": "116.69401886", "ask": "39439.99", "bid": "39180.01", "timestamp": 1538431741}, "ETH": {"short_code": "ETH", "name": "Ethereum", "currency": "TRY", "current": "1375.01", "change_amount": "9.97000000", "change_percentage": "-0.7", "high": "1384.98", "low": "1367", "volume": "248.60634128", "ask": "1384.99", "bid": "1375.01", "timestamp": 1538431741}, "USDT": {"short_code": "USDT", "name": "USDTether", "currency": "TRY", "current": "5.97", "change_amount": "0.00000000", "change_percentage": "0.0", "high": "5.97", "low": "5.97", "volume": "17757.02162414", "ask": "6.02", "bid": "5.96", "timestamp": 1538431741}, "BCH": {"short_code": "BCH", "name": "Bitcoin Cash", "currency": "TRY", "current": "3152", "change_amount": "1.01000000", "change_percentage": "0.0", "high": "3153.01", "low": "3152", "volume": "81.98847803", "ask": "3195", "bid": "3152", "timestamp": 1538431741}, "LTC": {"short_code": "LTC", "name": "Litecoin", "currency": "TRY", "current": "364", "change_amount": "-1.00000000", "change_percentage": "0.2", "high": "364", "low": "360.1", "volume": "504.11002321", "ask": "367", "bid": "360.56", "timestamp": 1538431741}, "DOGE": {"short_code": "DOGE", "name": "Dogecoin", "currency": "TRY", "current": "0.035399", "change_amount": "-0.00004000", "change_percentage": "0.1", "high": "0.035489", "low": "0.035359", "volume": "16789056.66506252", "ask": "0.035489", "bid": "0.0354", "timestamp": 1538431741}, "DASH": {"short_code": "DASH", "name": "Dash", "currency": "TRY", "current": "1115", "change_amount": "0.00000000", "change_percentage": "0.0", "high": "1115", "low": "1115", "volume": "50.55449282", "ask": "1119", "bid": "1115", "timestamp": 1538431741}, "XRP": {"short_code": "XRP", "name": "XRP", "currency": "TRY", "current": "3.4998", "change_amount": "-0.00600000", "change_percentage": "0.1", "high": "3.546", "low": "3.4501", "volume": "2578293.47087811", "ask": "3.49", "bid": "3.4818", "timestamp": 1538431741}, "XLM": {"short_code": "XLM", "name": "Stellar", "currency": "TRY", "current": "1.5509", "change_amount": "0.00240000", "change_percentage": "-0.1", "high": "1.56", "low": "1.5401", "volume": "1149603.15660452", "ask": "1.5589", "bid": "1.55", "timestamp": 1538431741}, "XEM": {"short_code": "XEM", "name": "Nem", "currency": "TRY", "current": "0.6139", "change_amount": "-0.00790000", "change_percentage": "1.2", "high": "0.619", "low": "0.6045", "volume": "4588870.96391825", "ask": "0.6139", "bid": "0.6075", "timestamp": 1538431741}, "BTG": {"short_code": "BTG", "name": "Bitcoin Gold", "currency": "TRY", "current": "153", "change_amount": "-0.04000000", "change_percentage": "0.0", "high": "153.2", "low": "150.05", "volume": "824.10863198", "ask": "155.95", "bid": "150.05", "timestamp": 1538431741}, "ETC": {"short_code": "ETC", "name": "Ethereum Classic", "currency": "TRY", "current": "67.2", "change_amount": "0.11000000", "change_percentage": "-0.1", "high": "68", "low": "67.2", "volume": "1540.50382149", "ask": "68", "bid": "67.2", "timestamp": 1538431741}}
[{"symbol": "BTCUSDT", "bidPrice": "6591.03000000", "bidQty": "0.05960900", "askPrice": "6593.08000000", "askQty": "6.84526200"}, {"symbol": "ETHUSDT", "bidPrice": "230.82000000", "bidQty": "0.48539000", "askPrice": "230.93000000", "askQty": "0.86579000"}]
[{"pair": "BTCTRY", "high": 40174.0, "last": 39471.0, "timestamp": 1538431795.0, "bid": 39401.0, "volume": 153.03, "low": 39122.0, "ask": 39467.0, "open": 40048.0, "average": 39561.55, "daily": 0.0, "dailyPercent": 0.0, "denominatorsymbol": "TRY", "numeratorsymbol": "BTC"}, {"pair": "ETHTRY", "high": 1419.0, "last": 1378.0, "timestamp": 1538431795.0, "bid": 1375.0, "volume": 3591.05, "low": 1355.0, "ask": 1384.0, "open": 1386.0, "average": 1380.96, "daily": 0.0, "dailyPercent": 0.0, "denominatorsymbol": "TRY", "numeratorsymbol": "ETH"}, {"pair": "XRPTRY", "high": 3.61, "last": 3.46, "timestamp": 1538431795.0, "bid": 3.47, "volume": 13009859.3, "low": 3.21, "ask": 3.48, "open": 3.49, "average": 3.44, "daily": 0.0, "dailyPercent": 0.0, "denominatorsymbol": "TRY", "numeratorsymbol": "XRP"}, {"pair": "USDTTRY", "high": 6.09, "last": 5.98, "timestamp": 1538431795.0, "bid": 5.97, "volume": 446159.08, "low": 5.92, "ask": 5.98, "open": 6.05, "average": 6.0, "daily": 0.0, "dailyPercent": 0.0, "denominatorsymbol": "TRY", "numeratorsymbol": "USDT"}, {"pair": "BTCUSDT", "high": 6675.0, "last": 6600.0, "timestamp": 1538431795.0, "bid": 6580.0, "volume": 8.0, "low": 6510.0, "ask": 6614.0, "open": 6512.0, "average": 6535.21, "daily": 0.0, "dailyPercent": 0.0, "denominatorsymbol": "USDT", "numeratorsymbol": "BTC"}]
{"e": "tickers", "ok": "ok", "data": [{"timestamp": "1538431796", "pair": "BTC:USD", "low": "6510", "high": "6645", "last": "6582.7", "volume": "428.16354688", "volume30d": "13143.53870578", "bid": 6575.3, "ask": 6590.1}, {"timestamp": "1538431796", "pair": "ETH:USD", "low": "225.12", "high": "234.3", "last": "230.8", "volume": "3292.82840900", "volume30d": "201021.02810600", "bid": 230.22, "ask": 230.69}, {"timestamp": "1538431796", "pair": "BCH:USD", "low": "520.1", "high": "540.97", "last": "530.5", "volume": "759.88813887", "volume30d": "30315.40583505", "bid": 530.93, "ask": 532.84}, {"timestamp": "1538431796", "pair": "BTG:USD", "low": "24.96", "high": "26.2", "last": "25.75", "volume": "1031.90171545", "volume30d": "41269.64399184", "bid": 25.36, "ask": 25.79}, {"timestamp": "1538431796", "pair": "DASH:USD", "low": "183.05", "high": "188.97", "last": "185.17", "volume": "35.50912122", "volume30d": "4570.16747430", "bid": 186.21, "ask": 187.72}, {"timestamp": "1538431796", "pair": "XRP:USD", "low": "0.538", "high": "0.6068", "last": "0.5834", "volume": "3327604.037306", "volume30d": "73431120.206171", "bid": 0.5783, "ask": 0.5827}, {"timestamp": "1538431796", "pair": "XLM:USD", "low": "0.252", "high": "0.2628", "last": "0.2579", "volume": "4845276.2378332", "volume30d": "145777655.8314585", "bid": 0.2577, "ask": 0.2579}, {"timestamp": "1538431796", "pair": "ZEC:USD", "low": "126.29", "high": "132", "last": "128.03", "volume": "173.54784988", "volume30d": "8127.67734727", "bid": 127.01, "ask": 128.52}]}
{"BTC": {"short_code": "BTC", "name": "Bitcoin", "currency": "TRY", "current": "39427.29", "change_amount": "19.71000000", "change_percentage": "0.0", "high": "39447", "low": "39224.02", "volume": "116.69401886", "ask": "39439.99", "bid": "39180.01", "timestamp": 1538431741}, "ETH": {"short_code": "ETH", "name": "Ethereum", "currency": "TRY", "current": "1375.01", "change_amount": "9.97000000", "change_percentage": "-0.7", "high": "1384.98", "low": "1367", "volume": "248.60634128", "ask": "1384.99", "bid": "1375.01", "timestamp": 1538431741}, "USDT": {"short_code": "USDT", "name": "USDTether", "currency": "TRY", "current": "5.97", "change_amount": "0.00000000", "change_percentage": "0.0", "high": "5.97", "low": "5.97", "volume": "17757.02162414", "ask": "6.02", "bid": "5.96", "timestamp": 1538431741}, "BCH": {"short_code": "BCH", "name": "Bitcoin Cash", "currency": "TRY", "current": "3152", "change_amount": "1.01000000", "change_percentage": "0.0", "high": "3153.01", "low": "3152", "volume": "81.98847803", "ask": "3195", "bid": "3152", "timestamp": 1538431741}, "LTC": {"short_code": "LTC", "name": "Litecoin", "currency": "TRY", "current": "364", "change_amount": "-1.00000000", "change_percentage": "0.2", "high": "364", "low": "360.1", "volume": "504.11002321", "ask": "367", "bid": "360.56", "timestamp": 1538431741}, "DOGE": {"short_code": "DOGE", "name": "Dogecoin", "currency": "TRY", "current": "0.035399", "change_amount": "-0.00004000", "change_percentage": "0.1", "high": "0.035489", "low": "0.035359", "volume": "16789056.66506252", "ask": "0.035489", "bid": "0.0354", "timestamp": 1538431741}, "DASH": {"short_code": "DASH", "name": "Dash", "currency": "TRY", "current": "1115", "change_amount": "0.00000000", "change_percentage": "0.0", "high": "1115", "low": "1115", "volume": "50.55449282", "ask": "1119", "bid": "1115", "timestamp": 1538431741}, "XRP": {"short_code": "XRP", "name": "XRP", "currency": "TRY", "current": "3.4998", "change_amount": "-0.00600000", "change_percentage": "0.1", "high": "3.546", "low": "3.4501", "volume": "2578293.47087811", "ask": "3.49", "bid": "3.4818", "timestamp": 1538431741}, "XLM": {"short_code": "XLM", "name": "Stellar", "currency": "TRY", "current": "1.5509", "change_amount": "0.00240000", "change_percentage": "-0.1", "high": "1.56", "low": "1.5401", "volume": "1149603.15660452", "ask": "1.5589", "bid": "1.55", "timestamp": 1538431741}, "XEM": {"short_code": "XEM", "name": "Nem", "currency": "TRY", "current": "0.6139", "change_amount": "-0.00790000", "change_percentage": "1.2", "high": "0.619", "low": "0.6045", "volume": "4588870.96391825", "ask": "0.6139", "bid": "0.6075", "timestamp": 1538431741}, "BTG": {"short_code": "BTG", "name": "Bitcoin Gold", "currency": "TRY", "current": "153", "change_amount": "-0.04000000", "change_percentage": "0.0", "high": "153.2", "low": "150.05", "volume": "824.10863198", "ask": "155.95", "bid": "150.05", "timestamp": 1538431741}, "ETC": {"short_code": "ETC", "name": "Ethereum Classic", "currency": "TRY", "current": "67.2", "change_amount": "0.11000000", "change_percentage": "-0.1", "high": "68", "low": "67.2", "volume": "1540.50382149", "ask": "68", "bid": "67.2", "timestamp": 1538431741}}
[{"symbol": "BTCUSDT", "bidPrice": "6591.03000000", "bidQty": "0.00006900", "askPrice": "6593.08000000", "askQty": "6.84526200"}, {"symbol": "ETHUSDT", "bidPrice": "230.83000000", "bidQty": "9.90013000", "askPrice": "230.92000000", "askQty": "1.49800000"}]
[{"pair": "BTCTRY", "high": 40174.0, "last": 39471.0, "timestamp": 1538431798.0, "bid": 39400.0, "volume": 153.03, "low": 39122.0, "ask": 39467.0, "open": 40048.0, "average": 39561.55, "daily": 0.0, "dailyPercent": 0.0, "denominatorsymbol": "TRY", "numeratorsymbol": "BTC"}, {"pair": "ETHTRY", "high": 1419.0, "last": 1378.0, "timestamp": 1538431798.0, "bid": 1375.0, "volume": 3591.05, "low": 1355.0, "ask": 1384.0, "open": 1386.0, "average": 1380.96, "daily": 0.0, "dailyPercent": 0.0, "denominatorsymbol": "TRY", "numeratorsymbol": "ETH"}, {"pair": "XRPTRY", "high": 3.61, "last": 3.46, "timestamp": 1538431798.0, "bid": 3.47, "volume": 13009859.3, "low": 3.21, "ask": 3.48, "open": 3.49, "average": 3.44, "daily": 0.0, "dailyPercent": 0.0, "denominatorsymbol": "TRY", "numeratorsymbol": "XRP"}, {"pair": "USDTTRY", "high": 6.09, "last": 5.98, "timestamp": 1538431798.0, "bid": 5.97, "volume": 446159.08, "low": 5.92, "ask": 5.98, "open": 6.05, "average": 6.0, "daily": 0.0, "dailyPercent": 0.0, "denominatorsymbol": "TRY", "numeratorsymbol": "USDT"}, {"pair": "BTCUSDT", "high": 6675.0, "last": 6600.0, "timestamp": 1538431798.0, "bid": 6580.0, "volume": 8.0, "low": 6510.0, "ask": 6614.0, "open": 6512.0, "average": 6535.21, "daily": 0.0, "dailyPercent": 0.0, "denominatorsymbol": "USDT", "numeratorsymbol": "BTC"}]
{"e": "tickers", "ok": "ok", "data": [{"timestamp": "1538431799", "pair": "BTC:USD", "low": "6510", "high": "6645", "last": "6582.7", "volume": "428.16354688", "volume30d": "13143.53870578", "bid": 6575.3, "ask": 6590.1}, {"timestamp": "1538431799", "pair": "ETH:USD", "low": "225.12", "high": "234.3", "last": "230.8", "volume": "3292.82840900", "volume30d": "201021.02810600", "bid": 230.22, "ask": 230.69}, {"timestamp": "1538431799", "pair": "BCH:USD", "low": "520.1", "high": "540.97", "last": "530.5", "volume": "759.88813887", "volume30d": "30315.40583505", "bid": 530.93, "ask": 532.84}, {"timestamp": "1538431799", "pair": "BTG:USD", "low": "24.96", "high": "26.2", "last": "25.75", "volume": "1031.90171545", "volume30d": "41269.64399184", "bid": 25.36, "ask": 25.79}, {"timestamp": "1538431799", "pair": "DASH:USD", "low": "183.05", "high": "188.97", "last": "185.17", "volume": "35.50912122", "volume30d": "4570.16747430", "bid": 186.21, "ask": 187.72}, {"timestamp": "1538431799", "pair": "XRP:USD", "low": "0.538", "high": "0.6068", "last": "0.5834", "volume": "3327604.037306", "volume30d": "73431120.206171", "bid": 0.5784, "ask": 0.5827}, {"timestamp": "1538431799", "pair": "XLM:USD", "low": "0.252", "high": "0.2628", "last": "0.2579", "volume": "4845276.2378332", "volume30d": "145777655.8314585", "bid": 0.2577, "ask": 0.2579}, {"timestamp": "1538431799", "pair": "ZEC:USD", "low": "126.29", "high": "132", "last": "128.03", "volume": "173.54784988", "volume30d": "8127.67734727", "bid": 127.01, "ask": 128.52}]}
{"BTC": {"short_code": "BTC", "name": "Bitcoin", "currency": "TRY", "current": "39427.29", "change_amount": "19.71000000", "change_percentage": "0.0", "high": "39447", "low": "39224.02", "volume": "116.69401886", "ask": "39439.99", "bid": "39180.01", "timestamp": 1538431741}, "ETH": {"short_code": "ETH", "name": "Ethereum", "currency": "TRY", "current": "1375.01", "change_amount": "9.97000000", "change_percentage": "-0.7", "high": "1384.98", "low": "1367", "volume": "248.60634128", "ask": "1384.99", "bid": "1375.01", "timestamp": 1538431741}, "USDT": {"short_code": "USDT", "name": "USDTether", "currency": "TRY", "current": "5.97", "change_amount": "0.00000000", "change_percentage": "0.0", "high": "5.97", "low": "5.97", "volume": "17757.02162414", "ask": "6.02", "bid": "5.96", "timestamp": 1538431741}, "BCH": {"short_code": "BCH", "name": "Bitcoin Cash", "currency": "TRY", "current": "3152", "change_amount": "1.01000000", "change_percentage": "0.0", "high": "3153.01", "low": "3152", "volume": "81.98847803", "ask": "3195", "bid": "3152", "timestamp": 1538431741}, "LTC": {"short_code": "LTC", "name": "Litecoin", "currency": "TRY", "current": "364", "change_amount": "-1.00000000", "change_percentage": "0.2", "high": "364", "low": "360.1", "volume": "504.11002321", "ask": "367", "bid": "360.56", "timestamp": 1538431741}, "DOGE": {"short_code": "DOGE", "name": "Dogecoin", "currency": "TRY", "current": "0.035399", "change_amount": "-0.00004000", "change_percentage": "0.1", "high": "0.035489", "low": "0.035359", "volume": "16789056.66506252", "ask": "0.035489", "bid": "0.0354", "timestamp": 1538431741}, "DASH": {"short_code": "DASH", "name": "Dash", "currency": "TRY", "current": "1115", "change_amount": "0.00000000", "change_percentage": "0.0", "high": "1115", "low": "1115", "volume": "50.55449282", "ask": "1119", "bid": "1115", "timestamp": 1538431741}, "XRP": {"short_code": "XRP", "name": "XRP", "currency": "TRY", "current": "3.4998", "change_amount": "-0.00600000", "change_percentage": "0.1", "high": "3.546", "low": "3.4501", "volume": "2578293.47087811", "ask": "3.49", "bid": "3.4818", "timestamp": 1538431741}, "XLM": {"short_code": "XLM", "name": "Stellar", "currency": "TRY", "current": "1.5509", "change_amount": "0.00240000", "change_percentage": "-0.1", "high": "1.56", "low": "1.5401", "volume": "1149603.15660452", "ask": "1.5589", "bid": "1.55", "timestamp": 1538431741}, "XEM": {"short_code": "XEM", "name": "Nem", "currency": "TRY", "current": "0.6139", "change_amount": "-0.00790000", "change_percentage": "1.2", "high": "0.619", "low": "0.6045", "volume": "4588870.96391825", "ask": "0.6139", "bid": "0.6075", "timestamp": 1538431741}, "BTG": {"short_code": "BTG", "name": "Bitcoin Gold", "currency": "TRY", "current": "153", "change_amount": "-0.04000000", "change_percentage": "0.0", "high": "153.2", "low": "150.05", "volume": "824.10863198", "ask": "155.95", "bid": "150.05", "timestamp": 1538431741}, "ETC": {"short_code": "ETC", "name": "Ethereum Classic", "currency": "TRY", "current": "67.2", "change_amount": "0.11000000", "change_percentage": "-0.1", "high": "68", "low": "67.2", "volume": "1540.50382149", "ask": "68", "bid": "67.2", "timestamp": 1538431741}}
[{"symbol": "BTCUSDT", "bidPrice": "6591.03000000", "bidQty": "0.00004400", "askPrice": "6593.08000000", "askQty": "6.84526200"}, {"symbol": "ETHUSDT", "bidPrice": "230.83000000", "bidQty": "0.18704000", "askPrice": "230.92000000", "askQty": "1.49800000"}]
[{"pair": "BTCTRY", "high": 40174.0, "last": 39471.0, "timestamp": 1538431800.0, "bid": 39400.0, "volume": 153.03, "low": 39122.0, "ask": 39467.0, "open": 40048.0, "average": 39561.55, "daily": 0.0, "dailyPercent": 0.0, "denominatorsymbol": "TRY", "numeratorsymbol": "BTC"}, {"pair": "ETHTRY", "high": 1419.0, "last": 1378.0, "timestamp": 1538431800.0, "bid": 1375.0, "volume": 3591.05, "low": 1355.0, "ask": 1385.0, "open": 1386.0, "average": 1380.96, "daily": 0.0, "dailyPercent": 0.0, "denominatorsymbol": "TRY", "numeratorsymbol": "ETH"}, {"pair": "XRPTRY", "high": 3.61, "last": 3.46, "timestamp": 1538431800.0, "bid": 3.47, "volume": 13009859.3, "low": 3.21, "ask": 3.48, "open": 3.49, "average": 3.44, "daily": 0.0, "dailyPercent": 0.0, "denominatorsymbol": "TRY", "numeratorsymbol": "XRP"}, {"pair": "USDTTRY", "high": 6.09, "last": 5.98, "timestamp": 1538431800.0, "bid": 5.97, "volume": 446159.08, "low": 5.92, "ask": 5.98, "open": 6.05, "average": 6.0, "daily": 0.0, "dailyPercent": 0.0, "denominatorsymbol": "TRY", "numeratorsymbol": "USDT"}, {"pair": "BTCUSDT", "high": 6675.0, "last": 6600.0, "timestamp": 1538431800.0, "bid": 6580.0, "volume": 8.0, "low": 6510.0, "ask": 6614.0, "open": 6512.0, "average": 6535.21, "daily": 0.0, "dailyPercent": 0.0, "denominatorsymbol": "USDT", "numeratorsymbol": "BTC"}]
{"e": "tickers", "ok": "ok", "data": [{"timestamp": "1538431801", "pair": "BTC:USD", "low": "6510", "high": "6645", "last": "6582.7", "volume": "428.16354688", "volume30d": "13143.53870578", "bid": 6582.7, "ask": 6589.9}, {"timestamp": "1538431801", "pair": "ETH:USD", "low": "225.12", "high": "234.3", "last": "230.8", "volume": "3292.82840900", "volume30d": "201021.02810600", "bid": 230.22, "ask": 230.69}, {"timestamp": "1538431801", "pair": "BCH:USD", "low": "520.1", "high": "540.97", "last": "530.93", "volume": "760.03813887", "volume30d": "30315.40583505", "bid": 529.01, "ask": 532.84}, {"timestamp": "1538431801", "pair": "BTG:USD", "low": "24.96", "high": "26.2", "last": "25.75", "volume": "1031.90171545", "volume30d": "41269.64399184", "bid": 25.36, "ask": 25.79}, {"timestamp": "1538431801", "pair": "DASH:USD", "low": "183.05", "high": "188.97", "last": "185.17", "volume": "35.50912122", "volume30d": "4570.16747430", "bid": 186.21, "ask": 187.72}, {"timestamp": "1538431801", "pair": "XRP:USD", "low": "0.538", "high": "0.6068", "last": "0.5834", "volume": "3327604.037306", "volume30d": "73431120.206171", "bid": 0.5784, "ask": 0.5827}, {"timestamp": "1538431801", "pair": "XLM:USD", "low": "0.252", "high": "0.2628", "last": "0.2579", "volume": "4845276.2378332", "volume30d": "145777655.8314585", "bid": 0.2577, "ask": 0.2579}, {"timestamp": "1538431801", "pair": "ZEC:USD", "low": "126.29", "high": "132", "last": "128.03", "volume": "173.54784988", "volume30d": "8127.67734727", "bid": 127.01, "ask": 128.52}]}
{"BTC": {"short_code": "BTC", "name": "Bitcoin", "currency": "TRY", "current": "39427.29", "change_amount": "19.71000000", "change_percentage": "0.0", "high": "39447", "low": "39224.02", "volume": "116.69401886", "ask": "39439.99", "bid": "39313.08", "timestamp": 1538431801}, "ETH": {"short_code": "ETH", "name": "Ethereum", "currency": "TRY", "current": "1375.01", "change_amount": "9.97000000", "change_percentage": "-0.7", "high": "1384.98", "low": "1367", "volume": "248.60634128", "ask": "1384.99", "bid": "1375.01", "timestamp": 1538431801}, "USDT": {"short_code": "USDT", "name": "USDTether", "currency": "TRY", "current": "5.97", "change_amount": "0.00000000", "change_percentage": "0.0", "high": "5.97", "low": "5.97", "volume": "17757.02162414", "ask": "6.02", "bid": "5.96", "timestamp": 1538431801}, "BCH": {"short_code": "BCH", "name": "Bitcoin Cash", "currency": "TRY", "current": "3152", "change_amount": "1.01000000", "change_percentage": "0.0", "high": "3153.01", "low": "3152", "volume": "81.89160394", "ask": "3195", "bid": "3152", "timestamp": 1538431801}, "LTC": {"short_code": "LTC", "name": "Litecoin", "currency": "TRY", "current": "364", "change_amount": "-1.00000000", "change_percentage": "0.2", "high": "364", "low": "360.1", "volume": "504.11002321", "ask": "367", "bid": "360.56", "timestamp": 1538431801}, "DOGE": {"short_code": "DOGE", "name": "Dogecoin", "currency": "TRY", "current": "0.035399", "change_amount": "-0.00004000", "change_percentage": "0.1", "high": "0.035489", "low": "0.035359", "volume": "16789056.66506252", "ask": "0.035489", "bid": "0.0354", "timestamp": 1538431801}, "DASH": {"short_code": "DASH", "name": "Dash", "currency": "TRY", "current": "1115", "change_amount": "0.00000000", "change_percentage": "0.0", "high": "1115", "low": "1115", "volume": "50.55449282", "ask": "1119", "bid": "1115", "timestamp": 1538431801}, "XRP": {"short_code": "XRP", "name": "XRP", "currency": "TRY", "current": "3.4998", "change_amount": "-0.00600000", "change_percentage": "0.1", "high": "3.546", "low": "3.4501", "volume": "2578293.47087811", "ask": "3.49", "bid": "3.4818", "timestamp": 1538431801}, "XLM": {"short_code": "XLM", "name": "Stellar", "currency": "TRY", "current": "1.5509", "change_amount": "0.00240000", "change_percentage": "-0.1", "high": "1.56", "low": "1.5401", "volume": "1149603.15660452", "ask": "1.5589", "bid": "1.55", "timestamp": 1538431801}, "XEM": {"short_code": "XEM", "name": "Nem", "currency": "TRY", "current": "0.6132", "change_amount": "-0.00720000", "change_percentage": "1.1", "high": "0.619", "low": "0.6045", "volume": "4589021.67991825", "ask": "0.6139", "bid": "0.6075", "timestamp": 1538431801}, "BTG": {"short_code": "BTG", "name": "Bitcoin Gold", "currency": "TRY", "current": "153", "change_amount": "-0.04000000", "change_percentage": "0.0", "high": "153.2", "low": "150.05", "volume": "824.10863198", "ask": "155.95", "bid": "150.05", "timestamp": 1538431801}, "ETC": {"short_code": "ETC", "name": "Ethereum Classic", "currency": "TRY", "current": "67.2", "change_amount": "0.11000000", "change_percentage": "-0.1", "high": "68", "low": "67.2", "volume": "1540.50382149", "ask": "68", "bid": "67.2", "timestamp": 1538431801}}
[{"symbol": "BTCUSDT", "bidPrice": "6591.01000000", "bidQty": "0.00450000", "askPrice": "6591.02000000", "askQty": "0.06388500"}, {"symbol": "ETHUSDT", "bidPrice": "230.82000000", "bidQty": "0.48539000", "askPrice": "230.93000000", "askQty": "0.86579000"}]
[{"pair": "BTCTRY", "high": 40174.0, "last": 39471.0, "timestamp": 1538431802.0, "bid": 39400.0, "volume": 153.03, "low": 39122.0, "ask": 39467.0, "open": 40048.0, "average": 39561.55, "daily": 0.0, "dailyPercent": 0.0, "denominatorsymbol": "TRY", "numeratorsymbol": "BTC"}, {"pair": "ETHTRY", "high": 1419.0, "last": 1378.0, "timestamp": 1538431802.0, "bid": 1375.0, "volume": 3591.05, "low": 1355.0, "ask": 1384.0, "open": 1386.0, "average": 1380.96, "daily": 0.0, "dailyPercent": 0.0, "denominatorsymbol": "TRY", "numeratorsymbol": "ETH"}, {"pair": "XRPTRY", "high": 3.61, "last": 3.46, "timestamp": 1538431802.0, "bid": 3.47, "volume": 13009859.3, "low": 3.21, "ask": 3.48, "open": 3.49, "average": 3.44, "daily": 0.0, "dailyPercent": 0.0, "denominatorsymbol": "TRY", "numeratorsymbol": "XRP"}, {"pair": "USDTTRY", "high": 6.09, "last": 5.98, "timestamp": 1538431802.0, "bid": 5.97, "volume": 446159.08, "low": 5.92, "ask": 5.98, "open": 6.05, "average": 6.0, "daily": 0.0, "dailyPercent": 0.0, "denominatorsymbol": "TRY", "numeratorsymbol": "USDT"}, {"pair": "BTCUSDT", "high": 6675.0, "last": 6600.0, "timestamp": 1538431802.0, "bid": 6580.0, "volume": 8.0, "low": 6510.0, "ask": 6614.0, "open": 6512.0, "average": 6535.21, "daily": 0.0, "dailyPercent": 0.0, "denominatorsymbol": "USDT", "numeratorsymbol": "BTC"}]
{"e": "tickers", "ok": "ok", "data": [{"timestamp": "1538431805", "pair": "BTC:USD", "low": "6510", "high": "6645", "last": "6582.7", "volume": "428.13134688", "volume30d": "13143.53870578", "bid": 6575.1, "ask": 6589.8}, {"timestamp": "1538431805", "pair": "ETH:USD", "low": "225.12", "high": "234.3", "last": "230.8", "volume": "3292.82840900", "volume30d": "201021.02810600", "bid": 230.22, "ask": 230.69}, {"timestamp": "1538431805", "pair": "BCH:USD", "low": "520.1", "high": "540.97", "last": "530.93", "volume": "759.57813887", "volume30d": "30315.40583505", "bid": 529.01, "ask": 532.84}, {"timestamp": "1538431805", "pair": "BTG:USD", "low": "24.96", "high": "26.2", "last": "25.75", "volume": "1031.90171545", "volume30d": "41269.64399184", "bid": 25.35, "ask": 25.79}, {"timestamp": "1538431805", "pair": "DASH:USD", "low": "183.05", "high": "188.97", "last": "185.17", "volume": "35.50912122", "volume30d": "4570.16747430", "bid": 186.21, "ask": 187.72}, {"timestamp": "1538431805", "pair": "XRP:USD", "low": "0.538", "high": "0.6068", "last": "0.5834", "volume": "3327488.816659", "volume30d": "73431120.206171", "bid": 0.5786, "ask": 0.5825}, {"timestamp": "1538431805", "pair": "XLM:USD", "low": "0.252", "high": "0.2628", "last": "0.2579", "volume": "4844293.2378332", "volume30d": "145777655.8314585", "bid": 0.2577, "ask": 0.2579}, {"timestamp": "1538431805", "pair": "ZEC:USD", "low": "126.29", "high": "132", "last": "128.03", "volume": "173.54784988", "volume30d": "8127.67734727", "bid": 127.01, "ask": 128.52}]}
{"BTC": {"short_code": "BTC", "name": "Bitcoin", "currency": "TRY", "current": "39427.29", "change_amount": "19.71000000", "change_percentage": "0.0", "high": "39447", "low": "39224.02", "volume": "116.69401886", "ask": "39439.99", "bid": "39313.08", "timestamp": 1538431801}, "ETH": {"short_code": "ETH", "name": "Ethereum", "currency": "TRY", "current": "1375.01", "change_amount": "9.97000000", "change_percentage": "-0.7", "high": "1384.98", "low": "1367", "volume": "248.60634128", "ask": "1384.99", "bid": "1375.01", "timestamp": 1538431801}, "USDT": {"short_code": "USDT", "name": "USDTether", "currency": "TRY", "current": "5.97", "change_amount": "0.00000000", "change_percentage": "0.0", "high": "5.97", "low": "5.97", "volume": "17757.02162414", "ask": "6.02", "bid": "5.96", "timestamp": 1538431801}, "BCH": {"short_code": "BCH", "name": "Bitcoin Cash", "currency": "TRY", "current": "3152", "change_amount": "1.01000000", "change_percentage": "0.0", "high": "3153.01", "low": "3152", "volume": "81.89160394", "ask": "3195", "bid": "3152", "timestamp": 1538431801}, "LTC": {"short_code": "LTC", "name": "Litecoin", "currency": "TRY", "current": "364", "change_amount": "-1.00000000", "change_percentage": "0.2", "high": "364", "low": "360.1", "volume": "504.11002321", "ask": "367", "bid": "360.56", "timestamp": 1538431801}, "DOGE": {"short_code": "DOGE", "name": "Dogecoin", "currency": "TRY", "current": "0.035399", "change_amount": "-0.00004000", "change_percentage": "0.1", "high": "0.035489", "low": "0.035359", "volume": "16789056.66506252", "ask": "0.035489", "bid": "0.0354", "timestamp": 1538431801}, "DASH": {"short_code": "DASH", "name": "Dash", "currency": "TRY", "current": "1115", "change_amount": "0.00000000", "change_percentage": "0.0", "high": "1115", "low": "1115", "volume": "50.55449282", "ask": "1119", "bid": "1115", "timestamp": 1538431801}, "XRP": {"short_code": "XRP", "name": "XRP", "currency": "TRY", "current": "3.4998", "change_amount": "-0.00600000", "change_percentage": "0.1", "high": "3.546", "low": "3.4501", "volume": "2578293.47087811", "ask": "3.49", "bid": "3.4818", "timestamp": 1538431801}, "XLM": {"short_code": "XLM", "name": "Stellar", "currency": "TRY", "current": "1.5509", "change_amount": "0.00240000", "change_percentage": "-0.1", "high": "1.56", "low": "1.5401", "volume": "1149603.15660452", "ask": "1.5589", "bid": "1.55", "timestamp": 1538431801}, "XEM": {"short_code": "XEM", "name": "Nem", "currency": "TRY", "current": "0.6132", "change_amount": "-0.00720000", "change_percentage": "1.1", "high": "0.619", "low": "0.6045", "volume": "4589021.67991825", "ask": "0.6139", "bid": "0.6075", "timestamp": 1538431801}, "BTG": {"short_code": "BTG", "name": "Bitcoin Gold", "currency": "TRY", "current": "153", "change_amount": "-0.04000000", "change_percentage": "0.0", "high": "153.2", "low": "150.05", "volume": "824.10863198", "ask": "155.95", "bid": "150.05", "timestamp": 1538431801}, "ETC": {"short_code": "ETC", "name": "Ethereum Classic", "currency": "TRY", "current": "67.2", "change_amount": "0.11000000", "change_percentage": "-0.1", "high": "68", "low": "67.2", "volume": "1540.50382149", "ask": "68", "bid": "67.2", "timestamp": 1538431801}}
[{"symbol": "BTCUSDT", "bidPrice": "6590.24000000", "bidQty": "0.07997700", "askPrice": "6591.01000000", "askQty": "0.12323600"}, {"symbol": "ETHUSDT", "bidPrice": "230.82000000", "bidQty": "0.48539000", "askPrice": "230.92000000", "askQty": "0.95274000"}]
[{"pair": "BTCTRY", "high": 40174.0, "last": 39471.0, "timestamp": 1538431805.0, "bid": 39400.0, "volume": 153.03, "low": 39122.0, "ask": 39467.0, "open": 40048.0, "average": 39561.55, "daily": 0.0, "dailyPercent": 0.0, "denominatorsymbol": "TRY", "numeratorsymbol": "BTC"}, {"pair": "ETHTRY", "high": 1419.0, "last": 1378.0, "timestamp": 1538431805.0, "bid": 1375.0, "volume": 3591.05, "low": 1355.0, "ask": 1385.0, "open": 1386.0, "average": 1380.96, "daily": 0.0, "dailyPercent": 0.0, "denominatorsymbol": "TRY", "numeratorsymbol": "ETH"}, {"pair": "XRPTRY", "high": 3.61, "last": 3.46, "timestamp": 1538431805.0, "bid": 3.47, "volume": 13009859.3, "low": 3.21, "ask": 3.48, "open": 3.49, "average": 3.44, "daily": 0.0, "dailyPercent": 0.0, "denominatorsymbol": "TRY", "numeratorsymbol": "XRP"}, {"pair": "USDTTRY", "high": 6.09, "last": 5.98, "timestamp": 1538431805.0, "bid": 5.97, "volume": 446159.08, "low": 5.92, "ask": 5.98, "open": 6.05, "average": 6.0, "daily": 0.0, "dailyPercent": 0.0, "denominatorsymbol": "TRY", "numeratorsymbol": "USDT"}, {"pair": "BTCUSDT", "high": 6675.0, "last": 6600.0, "timestamp": 1538431805.0, "bid": 6580.0, "volume": 8.0, "low": 6510.0, "ask": 6614.0, "open": 6512.0, "average": 6535.21, "daily": 0.0, "dailyPercent": 0.0, "denominatorsymbol": "USDT", "numeratorsymbol": "BTC"}]
{"e": "tickers", "ok": "ok", "data": [{"timestamp": "1538431808", "pair": "BTC:USD", "low": "6510", "high": "6645", "last": "6582.7", "volume": "428.13134688", "volume30d": "13143.53870578", "bid": 6575.3, "ask": 6589.8}, {"timestamp": "1538431808", "pair": "ETH:USD", "low": "225.12", "high": "234.3", "last": "230.8", "volume": "3292.82840900", "volume30d": "201021.02810600", "bid": 230.22, "ask": 230.69}, {"timestamp": "1538431808", "pair": "BCH:USD", "low": "520.1", "high": "540.97", "last": "530.93", "volume": "759.57813887", "volume30d": "30315.40583505", "bid": 529.01, "ask": 532.81}, {"timestamp": "1538431808", "pair": "BTG:USD", "low": "24.96", "high": "26.2", "last": "25.75", "volume": "1031.90171545", "volume30d": "41269.64399184", "bid": 25.35, "ask": 25.79}, {"timestamp": "1538431808", "pair": "DASH:USD", "low": "183.05", "high": "188.97", "last": "185.17", "volume": "35.50912122", "volume30d": "4570.16747430", "bid": 186.21, "ask": 187.72}, {"timestamp": "1538431808", "pair": "XRP:USD", "low": "0.538", "high": "0.6068", "last": "0.5834", "volume": "3327488.816659", "volume30d": "73431120.206171", "bid": 0.5786, "ask": 0.5825}, {"timestamp": "1538431808", "pair": "XLM:USD", "low": "0.252", "high": "0.2628", "last": "0.2579", "volume": "4844293.2378332", "volume30d": "145777655.8314585", "bid": 0.2577, "ask": 0.2579}, {"timestamp": "1538431808", "pair": "ZEC:USD", "low": "126.29", "high": "132", "last": "128.03", "volume": "173.54784988", "volume30d": "8127.67734727", "bid": 127.01, "ask": 128.52}]}
{"BTC": {"short_code": "BTC", "name": "Bitcoin", "currency": "TRY", "current": "39427.29", "change_amount": "19.71000000", "change_percentage": "0.0", "high": "39447", "low": "39224.02", "volume": "116.69401886", "ask": "39439.99", "bid": "39313.08", "timestamp": 1538431801}, "ETH": {"short_code": "ETH", "name": "Ethereum", "currency": "TRY", "current": "1375.01", "change_amount": "9.97000000", "change_percentage": "-0.7", "high": "1384.98", "low": "1367", "volume": "248.60634128", "ask": "1384.99", "bid": "1375.01", "timestamp": 1538431801}, "USDT": {"short_code": "USDT", "name": "USDTether", "currency": "TRY", "current": "5.97", "change_amount": "0.00000000", "change_percentage": "0.0", "high": "5.97", "low": "5.97", "volume": "17757.02162414", "ask": "6.02", "bid": "5.96", "timestamp": 1538431801}, "BCH": {"short_code": "BCH", "name": "Bitcoin Cash", "currency": "TRY", "current": "3152", "change_amount": "1.01000000", "change_percentage": "0.0", "high": "3153.01", "low": "3152", "volume": "81.89160394", "ask": "3195", "bid": "3152", "timestamp": 1538431801}, "LTC": {"short_code": "LTC", "name": "Litecoin", "currency": "TRY", "current": "364", "change_amount": "-1.00000000", "change_percentage": "0.2", "high": "364", "low": "360.1", "volume": "504.11002321", "ask": "367", "bid": "360.56", "timestamp": 1538431801}, "DOGE": {"short_code": "DOGE", "name": "Dogecoin", "currency": "TRY", "current": "0.035399", "change_amount": "-0.00004000", "change_percentage": "0.1", "high": "0.035489", "low": "0.035359", "volume": "16789056.66506252", "ask": "0.035489", "bid": "0.0354", "timestamp": 1538431801}, "DASH": {"short_code": "DASH", "name": "Dash", "currency": "TRY", "current": "1115", "change_amount": "0.00000000", "change_percentage": "0.0", "high": "1115", "low": "1115", "volume": "50.55449282", "ask": "1119", "bid": "1115", "timestamp": 1538431801}, "XRP": {"short_code": "XRP", "name": "XRP", "currency": "TRY", "current": "3.4998", "change_amount": "-0.00600000", "change_percentage": "0.1", "high": "3.546", "low": "3.4501", "volume": "2578293.47087811", "ask": "3.49", "bid": "3.4818", "timestamp": 1538431801}, "XLM": {"short_code": "XLM", "name": "Stellar", "currency": "TRY", "current": "1.5509", "change_amount": "0.00240000", "change_percentage": "-0.1", "high": "1.56", "low": "1.5401", "volume": "1149603.15660452", "ask": "1.5589", "bid": "1.55", "timestamp": 1538431801}, "XEM": {"short_code": "XEM", "name": "Nem", "currency": "TRY", "current": "0.6132", "change_amount": "-0.00720000", "change_percentage": "1.1", "high": "0.619", "low": "0.6045", "volume": "4589021.67991825", "ask": "0.6139", "bid": "0.6075", "timestamp": 1538431801}, "BTG": {"short_code": "BTG", "name": "Bitcoin Gold", "currency": "TRY", "current": "153", "change_amount": "-0.04000000", "change_percentage": "0.0", "high": "153.2", "low": "150.05", "volume": "824.10863198", "ask": "155.95", "bid": "150.05", "timestamp": 1538431801}, "ETC": {"short_code": "ETC", "name": "Ethereum Classic", "currency": "TRY", "current": "67.2", "change_amount": "0.11000000", "change_percentage": "-0.1", "high": "68", "low": "67.2", "volume": "1540.50382149", "ask": "68", "bid": "67.2", "timestamp": 1538431801}}
[{"symbol": "BTCUSDT", "bidPrice": "6591.00000000", "bidQty": "0.07586100", "askPrice": "6591.01000000", "askQty": "0.20487000"}, {"symbol": "ETHUSDT", "bidPrice": "230.82000000", "bidQty": "0.48539000", "askPrice": "230.92000000", "askQty": "2.19930000"}]
[{"pair": "BTCTRY", "high": 40174.0, "last": 39471.0, "timestamp": 1538431808.0, "bid": 39400.0, "volume": 153.03, "low": 39122.0, "ask": 39468.0, "open": 40048.0, "average": 39561.55, "daily": 0.0, "dailyPercent": 0.0, "denominatorsymbol": "TRY", "numeratorsymbol": "BTC"}, {"pair": "ETHTRY", "high": 1419.0, "last": 1378.0, "timestamp": 1538431808.0, "bid": 1375.0, "volume": 3591.05, "low": 1355.0, "ask": 1384.0, "open": 1386.0, "average": 1380.96, "daily": 0.0, "dailyPercent": 0.0, "denominatorsymbol": "TRY", "numeratorsymbol": "ETH"}, {"pair": "XRPTRY", "high": 3.61, "last": 3.46, "timestamp": 1538431808.0, "bid": 3.47, "volume": 13009859.3, "low": 3.21, "ask": 3.48, "open": 3.49, "average": 3.44, "daily": 0.0, "dailyPercent": 0.0, "denominatorsymbol": "TRY", "numeratorsymbol": "XRP"}, {"pair": "USDTTRY", "high": 6.09, "last": 5.98, "timestamp": 1538431808.0, "bid": 5.97, "volume": 446159.08, "low": 5.92, "ask": 5.98, "open": 6.05, "average": 6.0, "daily": 0.0, "dailyPercent": 0.0, "denominatorsymbol": "TRY", "numeratorsymbol": "USDT"}, {"pair": "BTCUSDT", "high": 6675.0, "last": 6600.0, "timestamp": 1538431808.0, "bid": 6580.0, "volume": 8.0, "low": 6510.0, "ask": 6614.0, "open": 6512.0, "average": 6535.21, "daily": 0.0, "dailyPercent": 0.0, "denominatorsymbol": "USDT", "numeratorsymbol": "BTC"}]
{"e": "tickers", "ok": "ok", "data": [{"timestamp": "1538431810", "pair": "BTC:USD", "low": "6510", "high": "6645", "last": "6582.7", "volume": "428.14014688", "volume30d": "13143.53870578", "bid": 6575.3, "ask": 6589.8}, {"timestamp": "1538431810", "pair": "ETH:USD", "low": "225.12", "high": "234.3", "last": "230.8", "volume": "3292.82840900", "volume30d": "201021.02810600", "bid": 230.22, "ask": 230.69}, {"timestamp": "1538431810", "pair": "BCH:USD", "low": "520.1", "high": "540.97", "last": "530.93", "volume": "759.57813887", "volume30d": "30315.40583505", "bid": 529.01, "ask": 532.81}, {"timestamp": "1538431810", "pair": "BTG:USD", "low": "24.96", "high": "26.2", "last": "25.75", "volume": "1031.90171545", "volume30d": "41269.64399184", "bid": 25.36, "ask": 25.79}, {"timestamp": "1538431810", "pair": "DASH:USD", "low": "183.05", "high": "188.97", "last": "185.17", "volume": "35.50912122", "volume30d": "4570.16747430", "bid": 186.21, "ask": 187.72}, {"timestamp": "1538431810", "pair": "XRP:USD", "low": "0.538", "high": "0.6068", "last": "0.5834", "volume": "3327488.816659", "volume30d": "73431120.206171", "bid": 0.5786, "ask": 0.5825}, {"timestamp": "1538431810", "pair": "XLM:USD", "low": "0.252", "high": "0.2628", "last": "0.2579", "volume": "4844293.2378332", "volume30d": "145777655.8314585", "bid": 0.2577, "ask": 0.2579}, {"timestamp": "1538431810", "pair": "ZEC:USD", "low": "126.29", "high": "132", "last": "128.03", "volume": "173.54784988", "volume30d": "8127.67734727", "bid": 127.01, "ask": 128.52}]}
{"BTC": {"short_code": "BTC", "name": "Bitcoin", "currency": "TRY", "current": "39427.29", "change_amount": "19.71000000", "change_percentage": "0.0", "high": "39447", "low": "39224.02", "volume": "116.69401886", "ask": "39439.99", "bid": "39313.08", "timestamp": 1538431801}, "ETH": {"short_code": "ETH", "name": "Ethereum", "currency": "TRY", "current": "1375.01", "change_amount": "9.97000000", "change_percentage": "-0.7", "high": "1384.98", "low": "1367", "volume": "248.60634128", "ask": "1384.99", "bid": "1375.01", "timestamp": 1538431801}, "USDT": {"short_code": "USDT", "name": "USDTether", "currency": "TRY", "current": "5.97", "change_amount": "0.00000000", "change_percentage": "0.0", "high": "5.97", "low": "5.97", "volume": "17757.02162414", "ask": "6.02", "bid": "5.96", "timestamp": 1538431801}, "BCH": {"short_code": "BCH", "name": "Bitcoin Cash", "currency": "TRY", "current": "3152", "change_amount": "1.01000000", "change_percentage": "0.0", "high": "3153.01", "low": "3152", "volume": "81.89160394", "ask": "3195", "bid": "3152", "timestamp": 1538431801}, "LTC": {"short_code": "LTC", "name": "Litecoin", "currency": "TRY", "current": "364", "change_amount": "-1.00000000", "change_percentage": "0.2", "high": "364", "low": "360.1", "volume": "504.11002321", "ask": "367", "bid": "360.56", "timestamp": 1538431801}, "DOGE": {"short_code": "DOGE", "name": "Dogecoin", "currency": "TRY", "current": "0.035399", "change_amount": "-0.00004000", "change_percentage": "0.1", "high": "0.035489", "low": "0.035359", "volume": "16789056.66506252", "ask": "0.035489", "bid": "0.0354", "timestamp": 1538431801}, "DASH": {"short_code": "DASH", "name": "Dash", "currency": "TRY", "current": "1115", "change_amount": "0.00000000", "change_percentage": "0.0", "high": "1115", "low": "1115", "volume": "50.55449282", "ask": "1119", "bid": "1115", "timestamp": 1538431801}, "XRP": {"short_code": "XRP", "name": "XRP", "currency": "TRY", "current": "3.4998", "change_amount": "-0.00600000", "change_percentage": "0.1", "high": "3.546", "low": "3.4501", "volume": "2578293.47087811", "ask": "3.49", "bid": "3.4818", "timestamp": 1538431801}, "XLM": {"short_code": "XLM", "name": "Stellar", "currency": "TRY", "current": "1.5509", "change_amount": "0.00240000", "change_percentage": "-0.1", "high": "1.56", "low": "1.5401", "volume": "1149603.15660452", "ask": "1.5589", "bid": "1.55", "timestamp": 1538431801}, "XEM": {"short_code": "XEM", "name": "Nem", "currency": "TRY", "current": "0.6132", "change_amount": "-0.00720000", "change_percentage": "1.1", "high": "0.619", "low": "0.6045", "volume": "4589021.67991825", "ask": "0.6139", "bid": "0.6075", "timestamp": 1538431801}, "BTG": {"short_code": "BTG", "name": "Bitcoin Gold", "currency": "TRY", "current": "153", "change_amount": "-0.04000000", "change_percentage": "0.0", "high": "153.2", "low": "150.05", "volume": "824.10863198", "ask": "155.95", "bid": "150.05", "timestamp": 1538431801}, "ETC": {"short_code": "ETC", "name": "Ethereum Classic", "currency": "TRY", "current": "67.2", "change_amount": "0.11000000", "change_percentage": "-0.1", "high": "68", "low": "67.2", "volume": "1540.50382149", "ask": "68", "bid": "67.2", "timestamp": 1538431801}}